…
    ## ── Conflicts ────────────────────────────────────────── tidyverse_conflicts() ──
    ## ✖ dplyr::filter() masks stats::filter()
    ## ✖ dplyr::lag()    masks stats::lag()

``` r
### Table for totals by month 
tournaments %>%
  select(`Team Name`,`Grade (4th-12th)`,`Tournament Registration`, Gender, Month,Year, `Registration Date`,`Account Email`, Net) %>%
  group_by(Month,Year) %>%
  summarise(Total_by_month = sum(Net , na.rm = TRUE)) %>%
  arrange(Total_by_month) 
```

    ## # A tibble: 35 x 3
    ## # Groups:   Month [12]
    ##    Month      Year Total_by_month
    ##    <chr>     <dbl>          <dbl>
    ##  1 December   2019          1078.
    ##  2 February   2017          1653.
    ##  3 November   2019         11251.
    ##  4 November   2018         12295.
    ##  5 February   2019         13478.
    ##  6 August     2017         13804.
    ##  7 November   2017         14273.
    ##  8 September  2017         15030.
    ##  9 December   2018         15388.
    ## 10 September  2018         15834.
    ## # … with 25 more rows
…
